<?xml version="1.0" encoding="UTF-8"?>
<session version="1.0">
<refactoring comment="Rename method &apos;edu.uab.cis.cs303.l3li3l.lab11.Graph.BFSMatrix(...)&apos; to &apos;BFSM&apos;&#x0A;- Original project: &apos;Lab11&apos;&#x0A;- Original element: &apos;edu.uab.cis.cs303.l3li3l.lab11.Graph.BFSMatrix(...)&apos;&#x0A;- Renamed element: &apos;edu.uab.cis.cs303.l3li3l.lab11.Graph.BFSM(...)&apos;&#x0A;- Update references to refactored element" delegate="false" deprecate="false" description="Rename method &apos;BFSMatrix&apos;" flags="589830" id="org.eclipse.jdt.ui.rename.method" input="/src&lt;edu.uab.cis.cs303.l3li3l.lab11{Graph.java[Graph~BFSMatrix~I" name="BFSM" references="true" stamp="1427840835747" version="1.0"/>
</session>