INDEX VERSION 1.126+/var/host/media/removable/extralife/FlashDrive/UABEtc/CS303/lab/3/.metadata/.plugins/org.eclipse.jdt.core
207856329.index
2173151054.index
2305062051.index
674224354.index
3132310983.index
255839873.index
280876225.index
2480231848.index
2898157804.index
2736811222.index
4128065620.index
265115641.index
1849042958.index
93126265.index
3712622596.index
2461011680.index
940882062.index
